,3000_FIFO_KGB,3000_GGB_KRB,1475_FIFO_KGB,3000_GGB_WAA
total,1.2928723476e+14,1.4467999956e+14,1.279474098e+14,1.6153249236e+14
mean,13802416436.4,15445713628.7,13659379716.0,17244848122.1
min,25080000.0,25080000.0,25080000.0,25080000.0
max,1.5295308e+11,1.5528588e+11,1.5191628e+11,1.5407628e+11
