,3000_FIFO_KGB,3000_GGB_KRB,1475_FIFO_KGB,3000_GGB_WAA
total,1.00572277879e+12,9.97361544375e+11,1.02530240272e+12,1.00701152125e+12
mean,107368717.71,106476090.998,109458994.632,107506300.977
min,0.0,0.0,0.0,0.0
max,863432876.0,816334886.0,837877744.0,1052501741.0
