,3000_FIFO_KGB,3000_GGB_KRB,1475_FIFO_KGB,3000_GGB_WAA
total,25661146751.0,25660732869.0,25662934616.0,25664532232.0
mean,2739526.71624,2739482.53112,2739717.58471,2739888.14263
min,0.0,0.0,0.0,0.0
max,19284154.0,20078277.0,22528662.0,19767905.0
