,3000_FIFO_KGB,3000_GGB_KRB,1475_FIFO_KGB,3000_GGB_WAA
total,9049.98,9056.26,9051.65,9032.94
mean,0.966155652824,0.966826091598,0.966333938294,0.96433650048
min,0.01,0.01,0.03,0.01
max,1.0,1.0,1.0,1.0
