,Durchlaufzeit,LagerWarteAnteil,LagerWarteZeit,LagerzeitAnteil,ProdArbeitsAnteil,ProdArbeitsZeit,ProdStörAnteil,ProdStörZeit,ProduktionszeitAnteil,ProdWarteAnteil,ProdWarteZeit,WartezeitAnteil,BearbzeitAnteil,GestörtzeitAnteil,EintrittszeitConWIP,Erzeugungszeit
count,9367.0,9367.0,9367.0,9367.0,9367.0,9367.0,9367.0,9367.0,9367.0,9367.0,9367.0,9367.0,9367.0,9367.0,9367.0,9367.0
mean,1.78284574013e+11,0.628260915982,504346466.557,0.628260915982,0.0403394896979,31414375.8715,0.00307782641187,3306140.82983,0.25139532401,0.207022525889,175300878.647,0.955408348457,0.0403394896979,0.00307782641187,3.79628344631e+11,2.02154476142e+11
std,1.02077804722e+11,0.104383719788,106951368.132,0.104383719788,0.0218078901426,17368946.9582,0.0046160073051,806204.262305,0.138194507411,0.140563544344,136123669.737,0.022594412606,0.0218078901426,0.0046160073051,2.18898005862e+11,1.16819900608e+11
min,629940000.0,0.17,163428265.0,0.17,0.01,16860000.0,0.0,746606.0,0.02,0.0,0.0,0.6,0.01,0.0,120000.0,60000.0
25%,89967540000.0,0.56,414004854.0,0.56,0.03,29460000.0,0.0,2866045.5,0.13,0.08,64860000.0,0.95,0.03,0.0,1.9010526e+11,1.0100166e+11
50%,1.7861394e+11,0.65,498765966.0,0.65,0.04,30720000.0,0.0,3384072.0,0.27,0.22,155062676.0,0.96,0.04,0.0,3.8001246e+11,2.0217606e+11
75%,2.6665554e+11,0.71,589704016.5,0.71,0.05,32460000.0,0.01,3849890.5,0.35,0.32,241418317.5,0.97,0.05,0.01,5.6914206e+11,3.0317766e+11
max,3.5573394e+11,0.81,767790910.0,0.81,0.39,283106415.0,0.01,6660528.0,0.72,0.69,950640000.0,0.99,0.39,0.01,7.5922206e+11,4.0461126e+11
